{
	"info": {
		"_postman_id": "480ba994-215d-4399-b2ff-3ddd9d4153bc",
		"name": "BOT ANA",
		"schema": "https://schema.getpostman.com/json/collection/v2.1.0/collection.json"
	},
	"item": [
		{
			"name": "access-token",
			"event": [
				{
					"listen": "test",
					"script": {
						"id": "a10d16d8-d67a-4f0b-98eb-54a355325653",
						"exec": [
							"pm.test(\"001 - o Status retornado foi 201\", function () {\r",
							"    pm.response.to.have.status(201);\r",
							"});\r",
							"try {    \r",
							"       responseJSON = JSON.parse(responseBody);     \r",
							"\r",
							"        tests['response is valid JSON'] = true;      \r",
							"        \r",
							"        pm.globals.set(\"TOKEN_CEDRO_ACCOUNTS\", responseJSON.access_token);\r",
							"\r",
							"        }   \r",
							"catch (e) {\r",
							"         responseJSON = {};         \r",
							"\r",
							"          tests['response is valid JSON'] = false;    \r",
							"     }"
						],
						"type": "text/javascript"
					}
				}
			],
			"request": {
				"method": "POST",
				"header": [
					{
						"key": "Content-Type",
						"name": "Content-Type",
						"value": "application/json",
						"type": "text"
					},
					{
						"key": "Authorization",
						"value": "Basic MWE1Zjk2NGItZWUzOC0zNmUxLWFhNzAtYmFiODYzZTI3NTlhOmY5MzdmOTdhLWNmMjQtMzBiZi05YjAwLWMxZjY4NmIwYWYxMg=="
					}
				],
				"body": {
					"mode": "raw",
					"raw": "{\n\t\"client_id\": \"1a5f964b-ee38-36e1-aa70-bab863e2759a\",\n\t\"redirect_uri\":\"http://localhost/?code=b2e28db9-08b0-3da6-ab06-acd03336c75d\",\n\t\"state\": \"\",\n\t\"grant_type\":\"client_credentials\"\n}"
				},
				"url": {
					"raw": "https://api-sandbox.algartelecom.com.br/oauth/access-token",
					"protocol": "https",
					"host": [
						"api-sandbox",
						"algartelecom",
						"com",
						"br"
					],
					"path": [
						"oauth",
						"access-token"
					]
				}
			},
			"response": []
		},
		{
			"name": "Avaliar Bot",
			"event": [
				{
					"listen": "test",
					"script": {
						"id": "000256f1-f6e7-4dd3-a385-6a6be6a68228",
						"exec": [
							"pm.test(\"002 - Avaliar Bot: Status retornado foi 200\", function ()\r",
							"{\r",
							"    pm.response.to.have.status(200);\r",
							"});\r",
							"\r",
							"pm.test(\"002 - Avaliar Bot: Tempo de resposta foi menor que 5000ms\", function ()\r",
							"{\r",
							"    pm.expect(pm.response.responseTime).to.be.below(5000);\r",
							"});\r",
							"\r",
							""
						],
						"type": "text/javascript"
					}
				}
			],
			"request": {
				"method": "GET",
				"header": [
					{
						"key": "client_id",
						"value": "1a5f964b-ee38-36e1-aa70-bab863e2759a",
						"type": "text"
					},
					{
						"key": "access_token",
						"value": "{{TOKEN_CEDRO_ACCOUNTS}}",
						"type": "text"
					}
				],
				"url": {
					"raw": "https://apicorp.algartelecom.com.br/telecom/product-management/lake/v1/reports/1709?NOTA=10&EMAIL=testenota@gmail.com&MOTIVO=motivo de teste",
					"protocol": "https",
					"host": [
						"apicorp",
						"algartelecom",
						"com",
						"br"
					],
					"path": [
						"telecom",
						"product-management",
						"lake",
						"v1",
						"reports",
						"1709"
					],
					"query": [
						{
							"key": "NOTA",
							"value": "10"
						},
						{
							"key": "EMAIL",
							"value": "testenota@gmail.com"
						},
						{
							"key": "MOTIVO",
							"value": "motivo de teste"
						}
					]
				}
			},
			"response": []
		},
		{
			"name": "Avaliar Bot Menor Que 8",
			"event": [
				{
					"listen": "test",
					"script": {
						"id": "adb55676-b538-4dbf-a6f3-f94338e8d1e1",
						"exec": [
							"pm.test(\"003 - Avaliar Bot Menor que 8: Status retornado foi 200\", function ()\r",
							"{\r",
							"    pm.response.to.have.status(200);\r",
							"});\r",
							"\r",
							"pm.test(\"003 - Avaliar Bot Menor que 8: Tempo de resposta foi menor que 5000ms\", function ()\r",
							"{\r",
							"    pm.expect(pm.response.responseTime).to.be.below(5000);\r",
							"});"
						],
						"type": "text/javascript"
					}
				}
			],
			"request": {
				"method": "GET",
				"header": [
					{
						"key": "client_id",
						"type": "text",
						"value": "1a5f964b-ee38-36e1-aa70-bab863e2759a"
					},
					{
						"key": "access_token",
						"type": "text",
						"value": "{{TOKEN_CEDRO_ACCOUNTS}}"
					}
				],
				"url": {
					"raw": "https://apicorp.algartelecom.com.br/telecom/product-management/lake/v1/reports/1709?NOTA=5&EMAIL=testenota@gmail.com&MOTIVO=não há motivo",
					"protocol": "https",
					"host": [
						"apicorp",
						"algartelecom",
						"com",
						"br"
					],
					"path": [
						"telecom",
						"product-management",
						"lake",
						"v1",
						"reports",
						"1709"
					],
					"query": [
						{
							"key": "NOTA",
							"value": "5"
						},
						{
							"key": "EMAIL",
							"value": "testenota@gmail.com"
						},
						{
							"key": "MOTIVO",
							"value": "não há motivo"
						}
					]
				}
			},
			"response": []
		},
		{
			"name": "Avaliar Bot - Não desejo avaliar",
			"event": [
				{
					"listen": "test",
					"script": {
						"id": "b4e20dac-101c-475a-9e48-41aabe4e6e87",
						"exec": [
							"pm.test(\"004 - Avaliar Bot - Não desejo avaliar: Status retornado foi 200\", function ()\r",
							"{\r",
							"    pm.response.to.have.status(200);\r",
							"});\r",
							"\r",
							"pm.test(\"004 - Avaliar Bot - Não desejo avaliar: Tempo de resposta foi menor que 5000ms\", function ()\r",
							"{\r",
							"    pm.expect(pm.response.responseTime).to.be.below(5000);\r",
							"});"
						],
						"type": "text/javascript"
					}
				}
			],
			"request": {
				"auth": {
					"type": "noauth"
				},
				"method": "GET",
				"header": [
					{
						"key": "client_id",
						"type": "text",
						"value": "1a5f964b-ee38-36e1-aa70-bab863e2759a"
					},
					{
						"key": "access_token",
						"type": "text",
						"value": "{{TOKEN_CEDRO_ACCOUNTS}}"
					}
				],
				"url": {
					"raw": "https://apicorp.algartelecom.com.br/telecom/product-management/lake/v1/reports/1709?NOTA=Não&EMAIL=testenota@gmail.com&MOTIVO=Não avaliou",
					"protocol": "https",
					"host": [
						"apicorp",
						"algartelecom",
						"com",
						"br"
					],
					"path": [
						"telecom",
						"product-management",
						"lake",
						"v1",
						"reports",
						"1709"
					],
					"query": [
						{
							"key": "NOTA",
							"value": "Não"
						},
						{
							"key": "EMAIL",
							"value": "testenota@gmail.com"
						},
						{
							"key": "MOTIVO",
							"value": "Não avaliou"
						}
					]
				}
			},
			"response": []
		},
		{
			"name": "Buscar Email",
			"request": {
				"method": "GET",
				"header": [],
				"url": {
					"raw": "https://graph.facebook.com/1520?fields=&access_token={{TOKEN_CEDRO_ACCOUNTS}}",
					"protocol": "https",
					"host": [
						"graph",
						"facebook",
						"com"
					],
					"path": [
						"1520"
					],
					"query": [
						{
							"key": "fields",
							"value": ""
						},
						{
							"key": "access_token",
							"value": "{{TOKEN_CEDRO_ACCOUNTS}}"
						}
					]
				}
			},
			"response": []
		},
		{
			"name": "Contratos Vencendo",
			"request": {
				"method": "GET",
				"header": [
					{
						"key": "client_id",
						"value": "1a5f964b-ee38-36e1-aa70-bab863e2759a",
						"type": "text"
					},
					{
						"key": "access_token",
						"value": "{{TOKEN_CEDRO_ACCOUNTS}}",
						"type": "text"
					}
				],
				"url": {
					"raw": "https://apicorp.algartelecom.com.br/telecom/product-management/lake/v1/reports/1804?EMAIL=claudiana@eticasolucoes.com.br",
					"protocol": "https",
					"host": [
						"apicorp",
						"algartelecom",
						"com",
						"br"
					],
					"path": [
						"telecom",
						"product-management",
						"lake",
						"v1",
						"reports",
						"1804"
					],
					"query": [
						{
							"key": "EMAIL",
							"value": "claudiana@eticasolucoes.com.br"
						}
					]
				}
			},
			"response": []
		},
		{
			"name": "Débitos CNPJ",
			"event": [
				{
					"listen": "test",
					"script": {
						"id": "758e55f7-7363-4699-a1b6-a439417f818d",
						"exec": [
							"pm.test(\"007 - Débitos CNPJ: Status retornado foi 200\", function ()\r",
							"{\r",
							"    pm.response.to.have.status(200);\r",
							"});\r",
							"\r",
							"pm.test(\"007 - Débitos CNPJ: Tempo de resposta foi menor que 5000ms\", function ()\r",
							"{\r",
							"    pm.expect(pm.response.responseTime).to.be.below(5000);\r",
							"});"
						],
						"type": "text/javascript"
					}
				}
			],
			"request": {
				"method": "GET",
				"header": [
					{
						"key": "client_id",
						"value": "1a5f964b-ee38-36e1-aa70-bab863e2759a",
						"type": "text"
					},
					{
						"key": "access_token",
						"value": "{{TOKEN_CEDRO_ACCOUNTS}}",
						"type": "text"
					}
				],
				"url": {
					"raw": "https://apicorp.algartelecom.com.br/telecom/product-management/lake/v1/reports/1583?CNPJ=09.461.647/0001-95&EMAIL=claudiana@eticasolucoes.com.br",
					"protocol": "https",
					"host": [
						"apicorp",
						"algartelecom",
						"com",
						"br"
					],
					"path": [
						"telecom",
						"product-management",
						"lake",
						"v1",
						"reports",
						"1583"
					],
					"query": [
						{
							"key": "CNPJ",
							"value": "09.461.647/0001-95"
						},
						{
							"key": "EMAIL",
							"value": "claudiana@eticasolucoes.com.br"
						}
					]
				}
			},
			"response": []
		},
		{
			"name": "Débitos Nome",
			"event": [
				{
					"listen": "test",
					"script": {
						"id": "ede2f227-2f83-40b4-b627-97382c575b18",
						"exec": [
							"pm.test(\"008 - Débitos Nome: Status retornado foi 200\", function ()\r",
							"{\r",
							"    pm.response.to.have.status(200);\r",
							"});\r",
							"\r",
							"pm.test(\"008 - Débitos Nome: Tempo de resposta foi menor que 5000ms\", function ()\r",
							"{\r",
							"    pm.expect(pm.response.responseTime).to.be.below(5000);\r",
							"});"
						],
						"type": "text/javascript"
					}
				}
			],
			"request": {
				"method": "GET",
				"header": [
					{
						"key": "client_id",
						"value": "1a5f964b-ee38-36e1-aa70-bab863e2759a",
						"type": "text"
					},
					{
						"key": "access_token",
						"value": "{{TOKEN_CEDRO_ACCOUNTS}}",
						"type": "text"
					}
				],
				"url": {
					"raw": "https://apicorp.algartelecom.com.br/telecom/product-management/lake/v1/reports/1851?NOME=Claudiana&EMAIL=claudiana@eticasolucoes.com.br",
					"protocol": "https",
					"host": [
						"apicorp",
						"algartelecom",
						"com",
						"br"
					],
					"path": [
						"telecom",
						"product-management",
						"lake",
						"v1",
						"reports",
						"1851"
					],
					"query": [
						{
							"key": "NOME",
							"value": "Claudiana"
						},
						{
							"key": "EMAIL",
							"value": "claudiana@eticasolucoes.com.br"
						}
					]
				}
			},
			"response": []
		},
		{
			"name": "Info. Cliente CNPJ",
			"event": [
				{
					"listen": "test",
					"script": {
						"id": "284579cc-a272-4f41-8eea-490ff462b0af",
						"exec": [
							"pm.test(\"009 - Info. Cliente CNPJ: Status retornado foi 200\", function ()\r",
							"{\r",
							"    pm.response.to.have.status(200);\r",
							"});\r",
							"\r",
							"pm.test(\"009 - Info. Cliente CNPJ: Tempo de resposta foi menor que 5000ms\", function ()\r",
							"{\r",
							"    pm.expect(pm.response.responseTime).to.be.below(5000);\r",
							"});"
						],
						"type": "text/javascript"
					}
				}
			],
			"request": {
				"method": "GET",
				"header": [
					{
						"key": "client_id",
						"value": "1a5f964b-ee38-36e1-aa70-bab863e2759a",
						"type": "text"
					},
					{
						"key": "access_token",
						"value": "{{TOKEN_CEDRO_ACCOUNTS}}",
						"type": "text"
					}
				],
				"url": {
					"raw": "https://apicorp.algartelecom.com.br/telecom/product-management/lake/v1/reports/1579?CNPJ=01.640.335/0001-37&EMAIL=sergiom@algartelecom.com.br",
					"protocol": "https",
					"host": [
						"apicorp",
						"algartelecom",
						"com",
						"br"
					],
					"path": [
						"telecom",
						"product-management",
						"lake",
						"v1",
						"reports",
						"1579"
					],
					"query": [
						{
							"key": "CNPJ",
							"value": "01.640.335/0001-37"
						},
						{
							"key": "EMAIL",
							"value": "sergiom@algartelecom.com.br"
						}
					]
				}
			},
			"response": []
		},
		{
			"name": "Info. Cliente Nome",
			"event": [
				{
					"listen": "test",
					"script": {
						"id": "07b1f57d-229d-4c42-a37f-bd71a6620350",
						"exec": [
							"pm.test(\"010 - Info. Cliente Nome: Status retornado foi 200\", function ()\r",
							"{\r",
							"    pm.response.to.have.status(200);\r",
							"});\r",
							"\r",
							"pm.test(\"010 - Info. Cliente Nome: Tempo de resposta foi menor que 5000ms\", function ()\r",
							"{\r",
							"    pm.expect(pm.response.responseTime).to.be.below(5000);\r",
							"});"
						],
						"type": "text/javascript"
					}
				}
			],
			"request": {
				"method": "GET",
				"header": [
					{
						"key": "client_id",
						"value": "1a5f964b-ee38-36e1-aa70-bab863e2759a",
						"type": "text"
					},
					{
						"key": "access_token",
						"value": "{{TOKEN_CEDRO_ACCOUNTS}}",
						"type": "text"
					}
				],
				"url": {
					"raw": "https://apicorp.algartelecom.com.br/telecom/product-management/lake/v1/reports/1825?NOME=Camilla Caroliny&EMAIL=claudiana@eticasolucoes.com.br",
					"protocol": "https",
					"host": [
						"apicorp",
						"algartelecom",
						"com",
						"br"
					],
					"path": [
						"telecom",
						"product-management",
						"lake",
						"v1",
						"reports",
						"1825"
					],
					"query": [
						{
							"key": "NOME",
							"value": "Camilla Caroliny"
						},
						{
							"key": "EMAIL",
							"value": "claudiana@eticasolucoes.com.br"
						}
					]
				}
			},
			"response": []
		},
		{
			"name": "Info. Contrato",
			"event": [
				{
					"listen": "test",
					"script": {
						"id": "69ccd4c1-32a3-40d9-8914-e8ae892ed46a",
						"exec": [
							"pm.test(\"011 - Info. Contrato: Status retornado foi 200\", function ()\r",
							"{\r",
							"    pm.response.to.have.status(200);\r",
							"});\r",
							"\r",
							"pm.test(\"011 - Info. Contrato: Tempo de resposta foi menor que 5000ms\", function ()\r",
							"{\r",
							"    pm.expect(pm.response.responseTime).to.be.below(5000);\r",
							"});"
						],
						"type": "text/javascript"
					}
				}
			],
			"request": {
				"method": "GET",
				"header": [
					{
						"key": "client_id",
						"value": "1a5f964b-ee38-36e1-aa70-bab863e2759a",
						"type": "text"
					},
					{
						"key": "access_token",
						"value": "{{TOKEN_CEDRO_ACCOUNTS}}",
						"type": "text"
					}
				],
				"url": {
					"raw": "https://apicorp.algartelecom.com.br/telecom/product-management/lake/v1/reports/2013?IDENTIFICADOR=6546&EMAIL=larissacr@algartelecom.com.br",
					"protocol": "https",
					"host": [
						"apicorp",
						"algartelecom",
						"com",
						"br"
					],
					"path": [
						"telecom",
						"product-management",
						"lake",
						"v1",
						"reports",
						"2013"
					],
					"query": [
						{
							"key": "IDENTIFICADOR",
							"value": "6546"
						},
						{
							"key": "EMAIL",
							"value": "larissacr@algartelecom.com.br"
						}
					]
				}
			},
			"response": []
		},
		{
			"name": "Info. Cotação",
			"event": [
				{
					"listen": "test",
					"script": {
						"id": "1bd99eac-97fd-414e-a36a-98c963d8d452",
						"exec": [
							"pm.test(\"012 - Info. Cotação: Status retornado foi 200\", function ()\r",
							"{\r",
							"    pm.response.to.have.status(200);\r",
							"});\r",
							"\r",
							"pm.test(\"012 - Info. Cotação: Tempo de resposta foi menor que 5000ms\", function ()\r",
							"{\r",
							"    pm.expect(pm.response.responseTime).to.be.below(5000);\r",
							"});"
						],
						"type": "text/javascript"
					}
				}
			],
			"request": {
				"method": "GET",
				"header": [
					{
						"key": "client_id",
						"value": "1a5f964b-ee38-36e1-aa70-bab863e2759a",
						"type": "text"
					},
					{
						"key": "access_token",
						"value": "{{TOKEN_CEDRO_ACCOUNTS}}",
						"type": "text"
					}
				],
				"url": {
					"raw": "https://apicorp.algartelecom.com.br/telecom/product-management/lake/v1/reports/2015?IDCOTACAO=5245&EMAIL=emailteste@gmail.com",
					"protocol": "https",
					"host": [
						"apicorp",
						"algartelecom",
						"com",
						"br"
					],
					"path": [
						"telecom",
						"product-management",
						"lake",
						"v1",
						"reports",
						"2015"
					],
					"query": [
						{
							"key": "IDCOTACAO",
							"value": "5245"
						},
						{
							"key": "EMAIL",
							"value": "emailteste@gmail.com"
						}
					]
				}
			},
			"response": []
		},
		{
			"name": "Info. Lead",
			"event": [
				{
					"listen": "test",
					"script": {
						"id": "31acdda4-dce5-4e8f-b9c5-3d68d152b6ea",
						"exec": [
							"pm.test(\"013 - Info. Lead: Status retornado foi 200\", function ()\r",
							"{\r",
							"    pm.response.to.have.status(200);\r",
							"});\r",
							"\r",
							"pm.test(\"013 - Info. Lead: Tempo de resposta foi menor que 5000ms\", function ()\r",
							"{\r",
							"    pm.expect(pm.response.responseTime).to.be.below(5000);\r",
							"});"
						],
						"type": "text/javascript"
					}
				}
			],
			"request": {
				"method": "GET",
				"header": [
					{
						"key": "client_id",
						"value": "1a5f964b-ee38-36e1-aa70-bab863e2759a",
						"type": "text"
					},
					{
						"key": "access_token",
						"value": "{{TOKEN_CEDRO_ACCOUNTS}}",
						"type": "text"
					}
				],
				"url": {
					"raw": "https://apicorp.algartelecom.com.br/telecom/product-management/lake/v1/reports/1916?IDLEAD=225&EMAIL=emailteste@gmail.com",
					"protocol": "https",
					"host": [
						"apicorp",
						"algartelecom",
						"com",
						"br"
					],
					"path": [
						"telecom",
						"product-management",
						"lake",
						"v1",
						"reports",
						"1916"
					],
					"query": [
						{
							"key": "IDLEAD",
							"value": "225"
						},
						{
							"key": "EMAIL",
							"value": "emailteste@gmail.com"
						}
					]
				}
			},
			"response": []
		},
		{
			"name": "Performance Consultor",
			"event": [
				{
					"listen": "test",
					"script": {
						"id": "93ba433a-cd3b-4987-9e66-a75b3ec930a4",
						"exec": [
							"pm.test(\"014 - Performance Consultor: Status retornado foi 200\", function ()\r",
							"{\r",
							"    pm.response.to.have.status(200);\r",
							"});\r",
							"\r",
							"pm.test(\"014 - Performance Consultor: Tempo de resposta foi menor que 5000ms\", function ()\r",
							"{\r",
							"    pm.expect(pm.response.responseTime).to.be.below(5000);\r",
							"});"
						],
						"type": "text/javascript"
					}
				}
			],
			"request": {
				"method": "GET",
				"header": [
					{
						"key": "client_id",
						"value": "1a5f964b-ee38-36e1-aa70-bab863e2759a",
						"type": "text"
					},
					{
						"key": "access_token",
						"value": "{{TOKEN_CEDRO_ACCOUNTS}}",
						"type": "text"
					}
				],
				"url": {
					"raw": "https://apicorp.algartelecom.com.br/telecom/product-management/lake/v1/reports/1898?EMAIL=claudiana@eticasolucoes.com.br",
					"protocol": "https",
					"host": [
						"apicorp",
						"algartelecom",
						"com",
						"br"
					],
					"path": [
						"telecom",
						"product-management",
						"lake",
						"v1",
						"reports",
						"1898"
					],
					"query": [
						{
							"key": "EMAIL",
							"value": "claudiana@eticasolucoes.com.br"
						}
					]
				}
			},
			"response": []
		},
		{
			"name": "Prod. Recomendados CNPJ",
			"event": [
				{
					"listen": "test",
					"script": {
						"id": "1cbbbf5b-3bd2-4cf2-8e8e-fed4554e5cae",
						"exec": [
							"pm.test(\"015 - Prod. Recomendados CNPJ: Status retornado foi 200\", function ()\r",
							"{\r",
							"    pm.response.to.have.status(200);\r",
							"});\r",
							"\r",
							"pm.test(\"015 - Prod. Recomendados CNPJ: Tempo de resposta foi menor que 5000ms\", function ()\r",
							"{\r",
							"    pm.expect(pm.response.responseTime).to.be.below(5000);\r",
							"});"
						],
						"type": "text/javascript"
					}
				}
			],
			"request": {
				"method": "GET",
				"header": [
					{
						"key": "client_id",
						"value": "1a5f964b-ee38-36e1-aa70-bab863e2759a",
						"type": "text"
					},
					{
						"key": "access_token",
						"value": "{{TOKEN_CEDRO_ACCOUNTS}}",
						"type": "text"
					}
				],
				"url": {
					"raw": "https://apicorp.algartelecom.com.br/telecom/product-management/lake/v1/reports/1587?CNPJ=01.640.335/0001-37&EMAIL=claudiana@eticasolucoes.com.br",
					"protocol": "https",
					"host": [
						"apicorp",
						"algartelecom",
						"com",
						"br"
					],
					"path": [
						"telecom",
						"product-management",
						"lake",
						"v1",
						"reports",
						"1587"
					],
					"query": [
						{
							"key": "CNPJ",
							"value": "01.640.335/0001-37"
						},
						{
							"key": "EMAIL",
							"value": "claudiana@eticasolucoes.com.br"
						}
					]
				}
			},
			"response": []
		},
		{
			"name": "Prod. Recomendados Nome",
			"event": [
				{
					"listen": "test",
					"script": {
						"id": "16bfa049-21c9-4708-beaf-f538351da2c5",
						"exec": [
							"pm.test(\"016 - Prod. Recomendados Nome: Status retornado foi 200\", function ()\r",
							"{\r",
							"    pm.response.to.have.status(200);\r",
							"});\r",
							"\r",
							"pm.test(\"016 - Prod. Recomendados Nome: Tempo de resposta foi menor que 5000ms\", function ()\r",
							"{\r",
							"    pm.expect(pm.response.responseTime).to.be.below(5000);\r",
							"});"
						],
						"type": "text/javascript"
					}
				}
			],
			"request": {
				"method": "GET",
				"header": [
					{
						"key": "client_id",
						"value": "1a5f964b-ee38-36e1-aa70-bab863e2759a",
						"type": "text"
					},
					{
						"key": "access_token",
						"value": "{{TOKEN_CEDRO_ACCOUNTS}}",
						"type": "text"
					}
				],
				"url": {
					"raw": "https://apicorp.algartelecom.com.br/telecom/product-management/lake/v1/reports/1852?NOME=Claudiana&EMAIL=claudiana@eticasolucoes.com.br",
					"protocol": "https",
					"host": [
						"apicorp",
						"algartelecom",
						"com",
						"br"
					],
					"path": [
						"telecom",
						"product-management",
						"lake",
						"v1",
						"reports",
						"1852"
					],
					"query": [
						{
							"key": "NOME",
							"value": "Claudiana"
						},
						{
							"key": "EMAIL",
							"value": "claudiana@eticasolucoes.com.br"
						}
					]
				}
			},
			"response": []
		},
		{
			"name": "Últimas Visitas CNPJ",
			"event": [
				{
					"listen": "test",
					"script": {
						"id": "25ffed35-af0a-4076-a913-ea5f6781d915",
						"exec": [
							"pm.test(\"017 - Últimas Visitas CNPJ: Status retornado foi 200\", function ()\r",
							"{\r",
							"    pm.response.to.have.status(200);\r",
							"});\r",
							"\r",
							"pm.test(\"017 - Últimas Visitas CNPJ: Tempo de resposta foi menor que 5000ms\", function ()\r",
							"{\r",
							"    pm.expect(pm.response.responseTime).to.be.below(5000);\r",
							"});"
						],
						"type": "text/javascript"
					}
				}
			],
			"request": {
				"method": "GET",
				"header": [
					{
						"key": "client_id",
						"type": "text",
						"value": "1a5f964b-ee38-36e1-aa70-bab863e2759a"
					},
					{
						"key": "access_token",
						"type": "text",
						"value": "{{TOKEN_CEDRO_ACCOUNTS}}"
					}
				],
				"url": {
					"raw": "https://apicorp.algartelecom.com.br/telecom/product-management/lake/v1/reports/1707?CNPJ=05.42549.12350/0152&EMAIL=claudiana@eticasolucoes.com.br",
					"protocol": "https",
					"host": [
						"apicorp",
						"algartelecom",
						"com",
						"br"
					],
					"path": [
						"telecom",
						"product-management",
						"lake",
						"v1",
						"reports",
						"1707"
					],
					"query": [
						{
							"key": "CNPJ",
							"value": "05.42549.12350/0152"
						},
						{
							"key": "EMAIL",
							"value": "claudiana@eticasolucoes.com.br"
						}
					]
				}
			},
			"response": []
		},
		{
			"name": "Últimas Visitas Nome",
			"event": [
				{
					"listen": "test",
					"script": {
						"id": "2fed58e9-cd06-451f-a967-2cb148068c1f",
						"exec": [
							"pm.test(\"018 - Últimas Visitas Nome: Status retornado foi 200\", function ()\r",
							"{\r",
							"    pm.response.to.have.status(200);\r",
							"});\r",
							"\r",
							"pm.test(\"018 - Últimas Visitas Nome: Tempo de resposta foi menor que 5000ms\", function ()\r",
							"{\r",
							"    pm.expect(pm.response.responseTime).to.be.below(5000);\r",
							"});"
						],
						"type": "text/javascript"
					}
				}
			],
			"request": {
				"method": "GET",
				"header": [
					{
						"key": "client_id",
						"value": "1a5f964b-ee38-36e1-aa70-bab863e2759a",
						"type": "text"
					},
					{
						"key": "access_token",
						"value": "{{TOKEN_CEDRO_ACCOUNTS}}",
						"type": "text"
					}
				],
				"url": {
					"raw": "https://apicorp.algartelecom.com.br/telecom/product-management/lake/v1/reports/1853?NOME=Claudiana&EMAIL=claudiana@eticasolucoes.com.br",
					"protocol": "https",
					"host": [
						"apicorp",
						"algartelecom",
						"com",
						"br"
					],
					"path": [
						"telecom",
						"product-management",
						"lake",
						"v1",
						"reports",
						"1853"
					],
					"query": [
						{
							"key": "NOME",
							"value": "Claudiana"
						},
						{
							"key": "EMAIL",
							"value": "claudiana@eticasolucoes.com.br"
						}
					]
				}
			},
			"response": []
		},
		{
			"name": "Últ. Contatos CNPJ",
			"event": [
				{
					"listen": "test",
					"script": {
						"id": "65151e22-1e11-4fc8-8c3b-3d90340580b1",
						"exec": [
							"pm.test(\"019 - Últ. Contatos CNPJ: Status retornado foi 200\", function ()\r",
							"{\r",
							"    pm.response.to.have.status(200);\r",
							"});\r",
							"\r",
							"pm.test(\"019 - Últ. Contatos CNPJ: Tempo de resposta foi menor que 5000ms\", function ()\r",
							"{\r",
							"    pm.expect(pm.response.responseTime).to.be.below(5000);\r",
							"});"
						],
						"type": "text/javascript"
					}
				}
			],
			"request": {
				"method": "GET",
				"header": [
					{
						"key": "client_id",
						"value": "1a5f964b-ee38-36e1-aa70-bab863e2759a",
						"type": "text"
					},
					{
						"key": "access_token",
						"value": "{{TOKEN_CEDRO_ACCOUNTS}}",
						"type": "text"
					}
				],
				"url": {
					"raw": "https://apicorp.algartelecom.com.br/telecom/product-management/lake/v1/reports/1582?CNPJ=05.42549.12350/0152&EMAIL=claudiana@eticasolucoes.com.br",
					"protocol": "https",
					"host": [
						"apicorp",
						"algartelecom",
						"com",
						"br"
					],
					"path": [
						"telecom",
						"product-management",
						"lake",
						"v1",
						"reports",
						"1582"
					],
					"query": [
						{
							"key": "CNPJ",
							"value": "05.42549.12350/0152"
						},
						{
							"key": "EMAIL",
							"value": "claudiana@eticasolucoes.com.br"
						}
					]
				}
			},
			"response": []
		},
		{
			"name": "Últ. Contatos Nome",
			"event": [
				{
					"listen": "test",
					"script": {
						"id": "cc56edcd-ea91-4338-86c3-104baca23607",
						"exec": [
							"pm.test(\"019 - Últ. Contatos Nome: Status retornado foi 200\", function ()\r",
							"{\r",
							"    pm.response.to.have.status(200);\r",
							"});\r",
							"\r",
							"pm.test(\"019 - Últ. Contatos Nome: Tempo de resposta foi menor que 5000ms\", function ()\r",
							"{\r",
							"    pm.expect(pm.response.responseTime).to.be.below(5000);\r",
							"});"
						],
						"type": "text/javascript"
					}
				}
			],
			"request": {
				"method": "GET",
				"header": [
					{
						"key": "client_id",
						"type": "text",
						"value": "1a5f964b-ee38-36e1-aa70-bab863e2759a"
					},
					{
						"key": "access_token",
						"type": "text",
						"value": "{{TOKEN_CEDRO_ACCOUNTS}}"
					}
				],
				"url": {
					"raw": "https://apicorp.algartelecom.com.br/telecom/product-management/lake/v1/reports/1850?NOME=Claudiana&EMAIL=claudiana@eticasolucoes.com.br",
					"protocol": "https",
					"host": [
						"apicorp",
						"algartelecom",
						"com",
						"br"
					],
					"path": [
						"telecom",
						"product-management",
						"lake",
						"v1",
						"reports",
						"1850"
					],
					"query": [
						{
							"key": "NOME",
							"value": "Claudiana"
						},
						{
							"key": "EMAIL",
							"value": "claudiana@eticasolucoes.com.br"
						}
					]
				}
			},
			"response": []
		}
	],
	"protocolProfileBehavior": {}
}