{
	"id": "6c0958c2-0f51-49d3-84f7-24c63c50f6f6",
	"name": "Algar HML",
	"values": [
		{
			"key": "consultaporCEP",
			"value": "{\n    \"content\": [\n        {\n            \"resourceType\": \"text\",\n            \"text\": \"CEP encontrado.\",\n            \"locale\": \"Uberlândia\",\n            \"street\": \"Avenida Padre Miguelinho\"\n        }\n    ]\n}",
			"enabled": true
		},
		{
			"key": "identificarcpfecnpj",
			"value": "{\n    \"content\": [\n        {\n            \"resourceType\": \"text\",\n            \"text\": \"Você não possui cadastro na hierarquia de vendas ou ele está incompleto, favor entrar em contato com o seu gestor para verificar a situação do seu cadastro.\",\n            \"isAddress\": false\n        }\n    ]\n}",
			"enabled": true
		},
		{
			"key": "informardominio",
			"value": "{\n    \"available\": false,\n    \"message\": \"Invalid domain\"\n}",
			"enabled": true
		},
		{
			"key": "coletarendereco",
			"value": "{\n    \"externalCode\": \"5884487\"\n}",
			"enabled": true
		},
		{
			"key": "plano1adquirirdominio",
			"value": "{\n    \"total\": \"R$69,90\"\n}",
			"enabled": true
		},
		{
			"key": "plano1dominioproprio",
			"value": "{\n    \"total\": \"R$69,90\"\n}",
			"enabled": true
		},
		{
			"key": "plano2adquirirdominio",
			"value": "{\n    \"total\": \"R$27,96\"\n}",
			"enabled": true
		},
		{
			"key": "plano2dominioproprio",
			"value": "{\n    \"total\": \"R$55,92\"\n}",
			"enabled": true
		},
		{
			"key": "plano3adquirirdominio",
			"value": "{\n    \"total\": \"R$55,92\"\n}",
			"enabled": true
		},
		{
			"key": "plano3dominioproprio",
			"value": "{\n    \"total\": \"R$22,37\"\n}",
			"enabled": true
		},
		{
			"key": "plano4adquirirdominio",
			"value": "{\n    \"total\": \"R$138,41\"\n}",
			"enabled": true
		},
		{
			"key": "plano4dominioproprio",
			"value": "{\n    \"total\": \"R$184,55\"\n}",
			"enabled": true
		},
		{
			"key": "plano5adquirirdominio",
			"value": "{\n    \"total\": \"R$223,69\"\n}",
			"enabled": true
		},
		{
			"key": "plano5dominioproprio",
			"value": "{\n    \"total\": \"R$335,54\"\n}",
			"enabled": true
		}
	],
	"_postman_variable_scope": "environment",
	"_postman_exported_at": "2020-09-01T13:10:43.460Z",
	"_postman_exported_using": "Postman/7.31.1"
}