{
	"id": "a285827e-0475-43f0-b704-43940ec61615",
	"name": "Algar Indica",
	"values": [
		{
			"key": "indicacaojson",
			"value": "{\n    \"error\": false,\n    \"msg\": {\n        \"idAssociado\": 1182,\n        \"indicacoes\": {\n            \"aguardando\": [\n                {\n                    \"Celular\": \"34999999999\",\n                    \"CpfCnpj\": \"\",\n                    \"DtAlteracaoStatus\": \"\",\n                    \"DtIndicacao\": \"25/08/2020\",\n                    \"IdAlgarCRM\": 140136,\n                    \"IdAssociado\": 0,\n                    \"IdLocalidade\": 3467,\n                    \"IdSegmento\": 0,\n                    \"Nome\": \"Guilherme\",\n                    \"NomeLocalidade\": \"UBERLANDIA\",\n                    \"ProdutoBandaLarga\": \"SEM INTERESSE\",\n                    \"ProdutoCelular\": \"SEM INTERESSE\",\n                    \"ProdutoTelefoneFixo\": \"SEM INTERESSE\",\n                    \"ProdutoTv\": \"SEM INTERESSE\",\n                    \"Segmento\": null,\n                    \"StatusIndicado\": \"AGUARDANDO ATENDIMENTO\",\n                    \"StatusPedido\": null,\n                    \"Telefone\": \"false\",\n                    \"UsuarioIndicador\": null\n                }\n            ],\n            \"emAndamento\": [],\n            \"naoVirou\": [],\n            \"vendas\": []\n        },\n        \"nome\": null,\n        \"posicaoRanking\": 7,\n        \"usuario\": \"sergiom@algartelecom.com.br\"\n    }\n}",
			"enabled": true
		},
		{
			"key": "indicarinternetetelefone",
			"value": "{\n    \"state\": 13,\n    \"segment\": 2\n}",
			"enabled": true
		},
		{
			"key": "indicarlocalidade",
			"value": "{\n    \"error\": false,\n    \"msg\": 3467\n}",
			"enabled": true
		},
		{
			"key": "enviarindicacao",
			"value": "{\n    \"error\": false,\n    \"msg\": null,\n    \"IdEmpresa\": 140154,\n    \"Mensagem\": \"Registro cadastrado com sucesso.\"\n}",
			"enabled": true
		}
	],
	"_postman_variable_scope": "environment",
	"_postman_exported_at": "2020-09-01T13:14:08.627Z",
	"_postman_exported_using": "Postman/7.31.1"
}